[
  {
    "name": "Big Buck Bunny",
    "url": "movies/BigBuckBunny.mp4",
    "poster": "movies/BigBuckBunny.png",
    "duration": 596
  },
  {
    "name": "Elephants Dream",
    "url": "movies/ElephantsDream.mp4",
    "poster": "movies/ElephantsDream.png",
    "duration": 654
  },
  {
    "name": "Sintel",
    "url": "movies/Sintel.mp4",
    "poster": "movies/Sintel.png",
    "duration": 888
  }
]